r2ogs6 User Guide
…
As can be seen, hdf5 files have a very particular structure. To work with the data, a simple method get_h5() allows to access the different data elements as a very raw starting point for post processing the data.

h5_list <- ogs6_obj$h5s[[1]]$get_h5("/")

If the file has a reasonably “clean” structure, a more convenient way of importing the data is using the method get_df that returns a tibble table.

df <- ogs6_obj$h5s[[1]]$get_df(group = "/t_0", names = "pressure")
df
#> # A tibble: 1,895 × 5
#>        x     y     z  time pressure
#>    <dbl> <dbl> <dbl> <dbl>    <dbl>
#>  1   0     0       0     0        0
#>  2   0.1   0       0     0        0
#>  3   0.2   0       0     0        0
#>  4   0     0.1     0     0        0
#>  5   0.1   0.1     0     0        0
#>  6   0.2   0.1     0     0        0
#>  7   0     0.2     0     0        0
#>  8   0.1   0.2     0     0        0
#>  9   0.2   0.2     0     0        0
#> 10   0     0.3     0     0        0
#> # … with 1,885 more rows
…
